{
  "name": "Prywatne repozytorium Dzików",
  "homepage": "https://repo.mleczko.waw.pl",
  "repositories": [
  ],
  "require-all":true,
  "require-dependencies":true,
  "require-dev-dependencies":true,
  "minimum-stability":"dev"
}
